{
    "KPlugin": {
        "Authors": [
            {
                "Email": "albertvaka@gmail.com",
                "Name": "Albert Vaca Cintora",
                "Name[ar]": "ألبرت فاكا سينتورا",
                "Name[az]": "Albert Vaca Cintora",
                "Name[bg]": "Albert Vaca Cintora",
                "Name[ca@valencia]": "Albert Vaca Cintora",
                "Name[ca]": "Albert Vaca Cintora",
                "Name[cs]": "Albert Vaca Cintora",
                "Name[de]": "Albert Vaca Cintora",
                "Name[en_GB]": "Albert Vaca Cintora",
                "Name[eo]": "Albert Vaca Cintora",
                "Name[es]": "Albert Vaca Cintora",
                "Name[eu]": "Albert Vaca Cintora",
                "Name[fi]": "Albert Vaca Cintora",
                "Name[fr]": "Albert Vaca Cintora",
                "Name[gl]": "Albert Vaca Cintora",
                "Name[he]": "אלברט ואקה סינטורה",
                "Name[ia]": "Albert Vaca Cintora",
                "Name[it]": "Albert Vaca Cintora",
                "Name[ja]": "Albert Vaca Cintora",
                "Name[ka]": "Albert Vaca Cintora",
                "Name[ko]": "Albert Vaca Cintora",
                "Name[nl]": "Albert Vaca Cintora",
                "Name[nn]": "Albert Vaca Cintora",
                "Name[pl]": "Albert Vaca Cintora",
                "Name[pt]": "Albert Vaca Cintora",
                "Name[pt_BR]": "Albert Vaca Cintora",
                "Name[ru]": "Albert Vaca Cintora",
                "Name[sl]": "Albert Vaca Cintora",
                "Name[sv]": "Albert Vaca Cintora",
                "Name[tr]": "Albert Vaca Cintora",
                "Name[uk]": "Albert Vaca Cintora",
                "Name[x-test]": "xxAlbert Vaca Cintoraxx",
                "Name[zh_CN]": "Albert Vaca Cintora",
                "Name[zh_TW]": "Albert Vaca Cintora"
            }
        ],
        "Description": "Pause music/videos during a phone call",
        "Description[ar]": "ألبث الموسيقى/الفيديو أثناء المكالمات الهاتفيّة",
        "Description[az]": "Zəng zamanı musiqi/video fasiləsi",
        "Description[bg]": "Спиране на музика/видео по време на телефонно обаждане",
        "Description[ca@valencia]": "Fa una pausa en la música/vídeos durant una tocada telefònica",
        "Description[ca]": "Fa una pausa a la música/vídeos durant una trucada telefònica",
        "Description[cs]": "Pozastavit hudbu/video během telefonátu",
        "Description[da]": "Sæt musik/videoer på pause under opkald",
        "Description[de]": "Hält Musik oder Videos während eines Anrufs an",
        "Description[el]": "Παύση μουσικής/βίντεο κατά τη διάρκεια κλήσης",
        "Description[en_GB]": "Pause music/videos during a phone call",
        "Description[eo]": "Paŭzi muzikon/filmetojn dum telefonvoko",
        "Description[es]": "Pausar música/video durante las llamadas telefónicas",
        "Description[et]": "Muusika või video peatamine telefonikõne ajal",
        "Description[eu]": "Pausatu musika / bideoak deietan",
        "Description[fi]": "Keskeytä musiikki ja videot puhelun aikana",
        "Description[fr]": "Mettre en pause la musique / les vidéos pendant un appel téléphonique",
        "Description[gl]": "Deter a reprodución de música ou vídeos durante as chamadas.",
        "Description[he]": "השהיית מוזיקה/סרטונים/סרטים במהלך שיחת טלפון",
        "Description[hu]": "A médialejátszás szüneteltetése telefonhívások közben",
        "Description[ia]": "Pausa musica/videos durante un telephonata",
        "Description[id]": "Jeda musik/video selagi panggilan telepon",
        "Description[is]": "Setja tónlist/myndskeið á pásu meðan á símtali stendur",
        "Description[it]": "Sospende la musica e i video durante una chiamata",
        "Description[ja]": "通話中に音楽やビデオを一時停止",
        "Description[ka]": "ზარის დროს მუსიკის/ვიდეოს დაკვრის შეჩერება",
        "Description[ko]": "휴대폰 통화 중 음악/동영상 일시 정지",
        "Description[lt]": "Pristabdyti muziką/vaizdo įrašus skambučių metu",
        "Description[nl]": "Muziek/video's pauzeren tijdens een telefoongesprek",
        "Description[nn]": "Set avspeling av musikk/video på pause ved oppringingar",
        "Description[pl]": "Wstrzymuje muzykę/film przy dzwonieniu",
        "Description[pt]": "Pausar a música/vídeos durante uma chamada telefónica",
        "Description[pt_BR]": "Pausa a música/vídeo durante uma chamada",
        "Description[ro]": "Întrerupe muzica/video pe durata unui apel",
        "Description[ru]": "Приостановка воспроизведение музыки/видео во время телефонного звонка",
        "Description[sk]": "Pozastavenie hudby/videí počas telefónneho hovoru",
        "Description[sl]": "Med telefonskim klicem zaustavite glasbo/videoposnetke",
        "Description[sr@ijekavian]": "Паузира музику или видео током телефонског позива",
        "Description[sr@ijekavianlatin]": "Pauzira muziku ili video tokom telefonskog poziva",
        "Description[sr@latin]": "Pauzira muziku ili video tokom telefonskog poziva",
        "Description[sr]": "Паузира музику или видео током телефонског позива",
        "Description[sv]": "Pausa musik eller videor under ett telefonsamtal",
        "Description[tr]": "Arama sırasında müzikleri/videoları duraklat",
        "Description[uk]": "Призупинка відтворення музики і відео на час телефонних дзвінків",
        "Description[x-test]": "xxPause music/videos during a phone callxx",
        "Description[zh_CN]": "手机来电时暂停音乐/视频",
        "Description[zh_TW]": "在通話過程中暫停音樂與影片",
        "EnabledByDefault": true,
        "Icon": "media-playback-pause",
        "License": "GPL",
        "Name": "Pause media during calls",
        "Name[ar]": "ألبث الوسائط أثناء المكالمات",
        "Name[az]": "Zəng zamanı media fasiləsi",
        "Name[bg]": "Паузиране на медийното възпроизвеждане по време на разговор",
        "Name[ca@valencia]": "Pausa als fitxers multimèdia durant les tocades",
        "Name[ca]": "Pausa als fitxers multimèdia durant les trucades",
        "Name[cs]": "Pozastavit média během telefonátu",
        "Name[da]": "Sæt medier på pause under opkald",
        "Name[de]": "Medium bei Anrufen anhalten",
        "Name[el]": "Παύση πολυμέσων στη διάρκεια κλήσεων",
        "Name[en_GB]": "Pause media during calls",
        "Name[eo]": "Paŭzi amaskomunikilaron dum vokoj",
        "Name[es]": "Pausar medios durante las llamadas",
        "Name[et]": "Meedia peatamine kõne ajal",
        "Name[eu]": "Pausatu media deietan",
        "Name[fi]": "Keskeytä toisto puhelujen aikana",
        "Name[fr]": "Mettre en pause le média pendant les appels",
        "Name[gl]": "Deter a reprodución durante as chamadas",
        "Name[he]": "להשהות נגינת מדיה במהלך שיחות",
        "Name[hu]": "Médialejátszás felfüggesztése",
        "Name[ia]": "Pausa medios durante telephonatas",
        "Name[id]": "Jeda media saat panggilan",
        "Name[is]": "Setja efni á pásu meðan á símtölum stendur",
        "Name[it]": "Sospendi i contenuti multimediali durante le chiamate",
        "Name[ja]": "通話中はメディアを一時停止",
        "Name[ka]": "ზარებისას მედიის შეჩერება",
        "Name[ko]": "통화 중 미디어 일시 정지",
        "Name[lt]": "Skambučių metu pristabdyti mediją",
        "Name[nl]": "Media pauzeren tijdens oproepen",
        "Name[nn]": "Set avspeling på pause ved oppringingar",
        "Name[pl]": "Wstrzymywanie odtwarzania przy dzwonieniu",
        "Name[pt]": "Pausar a reprodução durante as chamadas",
        "Name[pt_BR]": "Pausar os conteúdos multimídia durante as chamadas",
        "Name[ro]": "Întrerupe multimedia pe durata apelurilor",
        "Name[ru]": "Приостановка воспроизведения во время звонка",
        "Name[sk]": "Pozastaviť médiá počas hovorov",
        "Name[sl]": "Prekini predstavnost med klici",
        "Name[sr@ijekavian]": "Паузирање медија током позива",
        "Name[sr@ijekavianlatin]": "Pauziranje medija tokom poziva",
        "Name[sr@latin]": "Pauziranje medija tokom poziva",
        "Name[sr]": "Паузирање медија током позива",
        "Name[sv]": "Pausa media under samtal",
        "Name[tr]": "Aramalar sırasında ortamı duraklat",
        "Name[uk]": "Призупинка відтворення під час дзвінків",
        "Name[x-test]": "xxPause media during callsxx",
        "Name[zh_CN]": "来电时暂停媒体",
        "Name[zh_TW]": "在通話過程中暫停媒體"
    },
    "X-KDE-ConfigModule": "kdeconnect/kcms/kdeconnect_pausemusic_config",
    "X-KdeConnect-SupportedPacketType": [
        "kdeconnect.telephony"
    ]
}
